…
``` r
tar_make()
#> ✓ skip target raw_data_file
#> ✓ skip target target_data
#> ✓ skip target target_hist
#> ✓ skip target target_fit
#> ✓ skip pipeline
```

## Data

``` r
tar_read(target_data)
#> # A tibble: 153 x 6
#>    Ozone Solar.R  Wind  Temp Month   Day
#>    <dbl>   <dbl> <dbl> <dbl> <dbl> <dbl>
#>  1  41       190   7.4    67     5     1
#>  2  36       118   8      72     5     2
#>  3  12       149  12.6    74     5     3
#>  4  18       313  11.5    62     5     4
#>  5  42.1      NA  14.3    56     5     5
#>  6  28        NA  14.9    66     5     6
#>  7  23       299   8.6    65     5     7
#>  8  19        99  13.8    59     5     8
#>  9   8        19  20.1    61     5     9
#> 10  42.1     194   8.6    69     5    10
#> # … with 143 more rows
```
…
